^C:\USERS\300047514\ONEDRIVE - FOX VALLEY TECHNICAL COLLEGE\SECOND SEMESTER\INTRO TO C++\CW.ASSIGNMENT2\CW.ASSIGNMENT2\MAIN.CPP
C:\USERS\300047514\ONEDRIVE - FOX VALLEY TECHNICAL COLLEGE\SECOND SEMESTER\INTRO TO C++\CW.ASSIGNMENT2\CW.ASSIGNMENT2\DEBUG\VC141.PDB
C:\USERS\300047514\ONEDRIVE - FOX VALLEY TECHNICAL COLLEGE\SECOND SEMESTER\INTRO TO C++\CW.ASSIGNMENT2\CW.ASSIGNMENT2\DEBUG\VC141.IDB
C:\USERS\300047514\ONEDRIVE - FOX VALLEY TECHNICAL COLLEGE\SECOND SEMESTER\INTRO TO C++\CW.ASSIGNMENT2\CW.ASSIGNMENT2\DEBUG\MAIN.OBJ
